<?xml version="1.0" encoding="UTF-8" standalone="no"?>
<svg
   xmlns:dc="http://purl.org/dc/elements/1.1/"
   xmlns:cc="http://creativecommons.org/ns#"
   xmlns:rdf="http://www.w3.org/1999/02/22-rdf-syntax-ns#"
   xmlns:svg="http://www.w3.org/2000/svg"
   xmlns="http://www.w3.org/2000/svg"
   xmlns:xlink="http://www.w3.org/1999/xlink"
   xmlns:sodipodi="http://sodipodi.sourceforge.net/DTD/sodipodi-0.dtd"
   xmlns:inkscape="http://www.inkscape.org/namespaces/inkscape"
   inkscape:version="1.0beta1 (1:0.92.0+devel+201910161548+5c30636)"
   sodipodi:docname="mouse.svg"
   id="svg8"
   version="1.1"
   viewBox="0 0 6.3499999 57.150002"
   height="216"
   width="24">
  <defs
     id="defs2">
    <marker
       inkscape:collect="always"
       inkscape:stockid="DotM"
       orient="auto"
       refY="0.0"
       refX="0.0"
       id="DotM"
       style="overflow:visible"
       inkscape:isstock="true">
      <path
         id="path5884"
         d="M -2.5,-1.0 C -2.5,1.7600000 -4.7400000,4.0 -7.5,4.0 C -10.260000,4.0 -12.5,1.7600000 -12.5,-1.0 C -12.5,-3.7600000 -10.260000,-6.0 -7.5,-6.0 C -4.7400000,-6.0 -2.5,-3.7600000 -2.5,-1.0 z "
         style="fill-rule:evenodd;stroke:#000000;stroke-width:1pt;stroke-opacity:1;fill:#000000;fill-opacity:1"
         transform="scale(0.4) translate(7.4, 1)" />
    </marker>
    <marker
       inkscape:collect="always"
       inkscape:stockid="TriangleInM"
       orient="auto"
       refY="0.0"
       refX="0.0"
       id="TriangleInM"
       style="overflow:visible"
       inkscape:isstock="true">
      <path
         id="path5956"
         d="M 5.77,0.0 L -2.88,5.0 L -2.88,-5.0 L 5.77,0.0 z "
         style="fill-rule:evenodd;stroke:#000000;stroke-width:1pt;stroke-opacity:1;fill:#000000;fill-opacity:1"
         transform="scale(-0.4)" />
    </marker>
    <inkscape:path-effect
       effect="simplify"
       id="path-effect1122"
       is_visible="true"
       steps="1"
       threshold="0.000408163"
       smooth_angles="360"
       helper_size="0"
       simplify_individual_paths="false"
       simplify_just_coalesce="false" />
    <inkscape:path-effect
       simplify_just_coalesce="false"
       simplify_individual_paths="false"
       helper_size="0"
       smooth_angles="360"
       threshold="0.000408163"
       steps="1"
       is_visible="true"
       id="path-effect1116"
       effect="simplify" />
  </defs>
  <sodipodi:namedview
     inkscape:window-maximized="1"
     inkscape:window-y="27"
     inkscape:window-x="54"
     inkscape:window-height="1016"
     inkscape:window-width="1866"
     inkscape:snap-global="true"
     inkscape:snap-nodes="false"
     inkscape:object-nodes="false"
     inkscape:bbox-paths="false"
     inkscape:bbox-nodes="true"
     inkscape:snap-bbox="true"
     inkscape:snap-object-midpoints="false"
     units="px"
     showgrid="true"
     inkscape:document-rotation="0"
     inkscape:current-layer="layer1"
     inkscape:document-units="px"
     inkscape:cy="140.47989"
     inkscape:cx="-110.11698"
     inkscape:zoom="2"
     inkscape:pageshadow="2"
     inkscape:pageopacity="0.0"
     borderopacity="1.0"
     bordercolor="#666666"
     pagecolor="#ffffff"
     id="base">
    <inkscape:grid
       empspacing="24"
       id="grid10"
       type="xygrid" />
  </sodipodi:namedview>
  <metadata
     id="metadata5">
    <rdf:RDF>
      <cc:Work
         rdf:about="">
        <dc:format>image/svg+xml</dc:format>
        <dc:type
           rdf:resource="http://purl.org/dc/dcmitype/StillImage" />
        <dc:title />
        <dc:creator>
          <cc:Agent>
            <dc:title>Gyuris Gellért</dc:title>
          </cc:Agent>
        </dc:creator>
        <cc:license
           rdf:resource="http://creativecommons.org/licenses/by-sa/4.0/" />
      </cc:Work>
      <cc:License
         rdf:about="http://creativecommons.org/licenses/by-sa/4.0/">
        <cc:permits
           rdf:resource="http://creativecommons.org/ns#Reproduction" />
        <cc:permits
           rdf:resource="http://creativecommons.org/ns#Distribution" />
        <cc:requires
           rdf:resource="http://creativecommons.org/ns#Notice" />
        <cc:requires
           rdf:resource="http://creativecommons.org/ns#Attribution" />
        <cc:permits
           rdf:resource="http://creativecommons.org/ns#DerivativeWorks" />
        <cc:requires
           rdf:resource="http://creativecommons.org/ns#ShareAlike" />
      </cc:License>
    </rdf:RDF>
  </metadata>
  <g
     id="layer1"
     inkscape:groupmode="layer"
     inkscape:label="Réteg 1">
    <rect
       rx="0.078916825"
       ry="0.086087622"
       y="20.03727"
       x="2.828203"
       height="1.4641558"
       width="0.68955773"
       id="rect1001"
       style="fill:#d55500;fill-opacity:1;stroke:none;stroke-width:0.264583;stroke-linecap:round;stroke-linejoin:round;stroke-miterlimit:4;stroke-dasharray:none" />
    <rect
       rx="1.7208264"
       y="0.39772347"
       x="-4.8958263"
       height="5.554553"
       width="3.4416528"
       id="rect12"
       style="opacity:1;fill:none;fill-opacity:1;stroke:#000000;stroke-width:0.264583;stroke-linecap:round;stroke-linejoin:round;stroke-miterlimit:4;stroke-dasharray:none;stroke-opacity:1;stop-opacity:1" />
    <path
       sodipodi:nodetypes="cc"
       inkscape:connector-curvature="0"
       id="path837"
       d="m -4.9764022,2.8901803 c 1.1791542,0.2390515 2.3618648,0.2451736 3.6091629,0"
       style="opacity:1;fill:none;stroke:#000000;stroke-width:0.261037;stroke-linecap:butt;stroke-linejoin:miter;stroke-miterlimit:4;stroke-dasharray:none;stroke-opacity:1;stop-opacity:1" />
    <path
       inkscape:connector-curvature="0"
       id="path839"
       d="M -3.175,0.37178869 V 3.0584917"
       style="opacity:1;fill:none;stroke:#000000;stroke-width:0.261037;stroke-linecap:butt;stroke-linejoin:miter;stroke-miterlimit:4;stroke-dasharray:none;stroke-opacity:1;stop-opacity:1" />
    <rect
       ry="0.40287134"
       rx="0.45144826"
       y="0.92649233"
       x="-3.5733027"
       height="1.5866081"
       width="0.79661459"
       id="rect841"
       style="opacity:1;fill:#ffffff;fill-opacity:1;stroke:#000000;stroke-width:0.264583;stroke-linecap:butt;stroke-linejoin:round;stroke-miterlimit:4;stroke-dasharray:none;stroke-opacity:1;stop-opacity:1" />
    <path
       id="path918"
       style="color:#000000;font-style:normal;font-variant:normal;font-weight:normal;font-stretch:normal;font-size:medium;line-height:normal;font-family:sans-serif;font-variant-ligatures:normal;font-variant-position:normal;font-variant-caps:normal;font-variant-numeric:normal;font-variant-alternates:normal;font-variant-east-asian:normal;font-feature-settings:normal;font-variation-settings:normal;text-indent:0;text-align:start;text-decoration:none;text-decoration-line:none;text-decoration-style:solid;text-decoration-color:#000000;letter-spacing:normal;word-spacing:normal;text-transform:none;writing-mode:lr-tb;direction:ltr;text-orientation:mixed;dominant-baseline:auto;baseline-shift:baseline;text-anchor:start;white-space:normal;shape-padding:0;shape-margin:0;inline-size:0;clip-rule:nonzero;display:inline;overflow:visible;visibility:visible;opacity:1;isolation:auto;mix-blend-mode:normal;color-interpolation:sRGB;color-interpolation-filters:linearRGB;solid-color:#000000;solid-opacity:1;vector-effect:none;fill:#000000;fill-opacity:1;fill-rule:nonzero;stroke:none;stroke-width:0.264578;stroke-linecap:round;stroke-linejoin:round;stroke-miterlimit:4;stroke-dasharray:none;stroke-dashoffset:0;stroke-opacity:1;color-rendering:auto;image-rendering:auto;shape-rendering:auto;text-rendering:auto;enable-background:accumulate;stop-color:#000000;stop-opacity:1"
       d="m 3.1752583,0.26458334 c -1.0239777,0 -1.8523416,0.83976466 -1.8523416,1.87810476 v 2.0641072 c 0,1.0383402 0.8283639,1.8786215 1.8523416,1.8786215 1.023978,0 1.851825,-0.8402813 1.851825,-1.8786215 V 2.1426881 c 0,-1.0383401 -0.827847,-1.87810476 -1.851825,-1.87810476 z M 3.0429482,0.53945316 V 0.81432297 C 2.8149566,0.87452671 2.6429168,1.0830763 2.6429168,1.3315122 v 0.7806923 c 0,0.248422 0.1720589,0.4550702 0.4000316,0.5146059 v 0.311037 C 2.5528623,2.9310425 2.0680923,2.8825138 1.584436,2.794729 V 2.1426881 c 0,-0.8501561 0.6381995,-1.53602871 1.4585122,-1.60323494 z m 0.2615192,0 C 4.1257896,0.60539222 4.7624629,1.2916148 4.7624629,2.1426881 V 2.7952456 C 4.2676273,2.8823528 3.7828484,2.929707 3.3044674,2.93733 V 2.6278439 C 3.5330661,2.5692151 3.7039822,2.3615646 3.7039822,2.1122045 V 1.3315122 c 0,-0.2493732 -0.1708981,-0.45893377 -0.3995147,-0.5182226 z M 3.1752575,1.0602591 c 0.1503869,0 0.2646204,0.1198024 0.2646204,0.2712531 v 0.7806923 c 0,0.1514516 -0.1142333,0.2681532 -0.2646204,0.2681532 -0.1503869,0 -0.2677211,-0.116703 -0.2677211,-0.2681532 V 1.3315122 c 0,-0.1514509 0.1173352,-0.2712531 0.2677211,-0.2712531 z m 1.5872056,2.0026231 v 1.1439131 c 0,0.8953483 -0.7042409,1.6130519 -1.5872048,1.6130519 -0.8829635,0 -1.5908223,-0.7177036 -1.5908223,-1.6130519 V 3.0633987 c 1.0395668,0.1832214 2.0873077,0.1866008 3.1780271,-5.165e-4 z"
       inkscape:connector-curvature="0" />
    <path
       id="rect941"
       style="opacity:1;fill:#d55500;fill-opacity:1;stroke:none;stroke-width:0.359672;stroke-linecap:round;stroke-linejoin:round;stroke-miterlimit:4;stroke-dasharray:none;stop-opacity:1"
       d="M 3.1190155,6.8154502 C 2.2024228,6.8909789 1.5473376,7.5955904 1.5443514,8.4457413 l -0.00263,0.7495325 c 0.4836562,0.087785 1.070495,0.1478853 1.5605812,0.1546901 L 3.10835,8.9613743 C 2.8803812,8.901839 2.7206838,8.7206015 2.719205,8.4721839 L 2.7145511,7.6904282 C 2.7130693,7.4419967 2.8910229,7.3061531 3.1190145,7.2459494 Z"
       inkscape:connector-curvature="0"
       sodipodi:nodetypes="cscccsscc" />
    <use
       x="0"
       y="0"
       xlink:href="#path918"
       id="use947"
       transform="translate(1.056382e-7,6.3500001)"
       width="100%"
       height="100%"
       style="opacity:1;stop-opacity:1" />
    <use
       x="0"
       y="0"
       xlink:href="#rect941"
       id="use999"
       transform="translate(-4.8298479e-8,6.3736942)"
       width="100%"
       height="100%"
       style="opacity:1;stop-opacity:1" />
    <use
       x="0"
       y="0"
       xlink:href="#path918"
       id="use949"
       transform="translate(1.056382e-7,12.7)"
       width="100%"
       height="100%"
       style="opacity:1;stop-opacity:1" />
    <use
       x="0"
       y="0"
       xlink:href="#path918"
       id="use951"
       transform="translate(1.056382e-7,19.05)"
       width="100%"
       height="100%"
       style="opacity:1;stop-opacity:1" />
    <use
       height="100%"
       width="100%"
       transform="matrix(-1,0,0,1,6.356543,19.043492)"
       id="use1027"
       xlink:href="#rect941"
       y="0"
       x="0" />
    <use
       x="0"
       y="0"
       xlink:href="#path918"
       id="use953"
       transform="translate(1.056382e-7,25.4)"
       width="100%"
       height="100%"
       style="opacity:1;stop-opacity:1" />
    <use
       height="100%"
       width="100%"
       transform="translate(0,12.681999)"
       id="use1029"
       xlink:href="#rect1001"
       y="0"
       x="0" />
    <use
       x="0"
       y="0"
       xlink:href="#path918"
       id="use955"
       transform="translate(1.056382e-7,31.75)"
       width="100%"
       height="100%"
       style="opacity:1;stop-opacity:1" />
    <use
       height="100%"
       width="100%"
       transform="translate(0,31.74292)"
       id="use1033"
       xlink:href="#rect941"
       y="0"
       x="0" />
    <use
       x="0"
       y="0"
       xlink:href="#path918"
       id="use957"
       transform="translate(1.056382e-7,38.1)"
       width="100%"
       height="100%"
       style="opacity:1;stop-opacity:1" />
    <use
       height="100%"
       width="100%"
       transform="translate(0,25.416779)"
       id="use1031"
       xlink:href="#rect1001"
       y="0"
       x="0" />
    <use
       x="0"
       y="0"
       xlink:href="#path918"
       id="use959"
       transform="translate(1.056382e-7,44.45)"
       width="100%"
       height="100%"
       style="opacity:1;stop-opacity:1" />
    <use
       height="100%"
       width="100%"
       transform="translate(0,25.395939)"
       id="use1037"
       xlink:href="#use1027"
       y="0"
       x="0" />
    <use
       x="0"
       y="0"
       xlink:href="#path918"
       id="use961"
       transform="translate(1.056382e-7,50.800001)"
       width="100%"
       height="100%"
       style="opacity:1;stop-opacity:1" />
    <g
       transform="translate(0,4.2333334)"
       style="opacity:1;stop-opacity:1"
       id="use857" />
    <path
       style="fill:none;stroke:#d55500;stroke-width:0.264583;stroke-linecap:round;stroke-linejoin:miter;stroke-miterlimit:4;stroke-dasharray:none;stroke-opacity:1"
       d="m 2.2489585,12.832292 c -0.559752,0.265974 -1.29468,0.933811 -1.294255,2.120128"
       id="path1102"
       inkscape:connector-curvature="0"
       sodipodi:nodetypes="cc" />
    <path
       sodipodi:nodetypes="cc"
       inkscape:connector-curvature="0"
       id="path1104"
       d="M 1.4529475,12.832292 C 0.89319553,13.098266 0.39901853,13.996017 0.42829453,14.685457"
       style="fill:none;stroke:#d55500;stroke-width:0.264583;stroke-linecap:round;stroke-linejoin:miter;stroke-miterlimit:4;stroke-dasharray:none;stroke-opacity:1" />
    <path
       style="fill:none;stroke:#000000;stroke-width:0.252875;stroke-linecap:butt;stroke-linejoin:miter;stroke-miterlimit:4;stroke-dasharray:none;stroke-opacity:1;marker-start:url(#TriangleInM);marker-end:url(#DotM)"
       d="M -0.50704024,38.608904 -5.7843791,43.884513"
       id="path6496"
       inkscape:connector-curvature="0"
       sodipodi:nodetypes="cc" />
    <path
       inkscape:connector-curvature="0"
       id="path9629"
       style="color:#000000;font-style:normal;font-variant:normal;font-weight:normal;font-stretch:normal;font-size:medium;line-height:normal;font-family:sans-serif;font-variant-ligatures:normal;font-variant-position:normal;font-variant-caps:normal;font-variant-numeric:normal;font-variant-alternates:normal;font-variant-east-asian:normal;font-feature-settings:normal;font-variation-settings:normal;text-indent:0;text-align:start;text-decoration:none;text-decoration-line:none;text-decoration-style:solid;text-decoration-color:#000000;letter-spacing:normal;word-spacing:normal;text-transform:none;writing-mode:lr-tb;direction:ltr;text-orientation:mixed;dominant-baseline:auto;baseline-shift:baseline;text-anchor:start;white-space:normal;shape-padding:0;shape-margin:0;inline-size:0;clip-rule:nonzero;display:inline;overflow:visible;visibility:visible;opacity:1;isolation:auto;mix-blend-mode:normal;color-interpolation:sRGB;color-interpolation-filters:linearRGB;solid-color:#000000;solid-opacity:1;vector-effect:none;fill:#d55500;fill-opacity:1;fill-rule:nonzero;stroke:none;stroke-width:0.252875;stroke-linecap:butt;stroke-linejoin:miter;stroke-miterlimit:4;stroke-dasharray:none;stroke-dashoffset:0;stroke-opacity:1;color-rendering:auto;image-rendering:auto;shape-rendering:auto;text-rendering:auto;enable-background:accumulate;stop-color:#000000;stop-opacity:1"
       d="m 6.3500001,38.1 -0.113172,0.02946 -1.087789,0.290939 0.350367,0.350367 -0.751892,0.751374 c 0.0036,0.0081 0.01103,0.01355 0.01447,0.0217 0.03479,0.08252 0.03253,0.180139 0.05426,0.268718 l 0.86248,-0.86248 0.350883,0.350882 z m -4.81521,4.63331 -0.65887504,0.658873 c -0.221192,-0.1387 -0.517331,-0.113059 -0.709517,0.07907 -0.223242,0.223168 -0.223169,0.587047 0,0.810286 0.223168,0.223242 0.587561,0.223168 0.810803,0 0.19213304,-0.192072 0.21762004,-0.488299 0.07906,-0.709517 l 0.547253,-0.547254 c -0.0036,-0.0081 -0.01103,-0.01355 -0.01447,-0.0217 -0.03492,-0.08282 -0.0325,-0.180824 -0.05426,-0.26975 z" />
    <use
       height="100%"
       width="100%"
       transform="translate(0,6.3500004)"
       id="use1039"
       xlink:href="#path9629"
       y="0"
       x="0" />
    <use
       height="100%"
       width="100%"
       transform="translate(0,12.7)"
       id="use1041"
       xlink:href="#path9629"
       y="0"
       x="0" />
    <path
       inkscape:connector-curvature="0"
       d="m 2.910675,34.395834 v 0.264583 H 2.5236185 l 0.6526733,0.529167 C 3.3925323,35.013046 3.6094959,34.836783 3.8263815,34.660417 H 3.4398416 v -0.264583 z"
       style="color:#000000;font-style:normal;font-variant:normal;font-weight:normal;font-stretch:normal;font-size:medium;line-height:normal;font-family:sans-serif;font-variant-ligatures:normal;font-variant-position:normal;font-variant-caps:normal;font-variant-numeric:normal;font-variant-alternates:normal;font-variant-east-asian:normal;font-feature-settings:normal;font-variation-settings:normal;text-indent:0;text-align:start;text-decoration:none;text-decoration-line:none;text-decoration-style:solid;text-decoration-color:#000000;letter-spacing:normal;word-spacing:normal;text-transform:none;writing-mode:lr-tb;direction:ltr;text-orientation:mixed;dominant-baseline:auto;baseline-shift:baseline;text-anchor:start;white-space:normal;shape-padding:0;shape-margin:0;inline-size:0;clip-rule:nonzero;display:inline;overflow:visible;visibility:visible;opacity:1;isolation:auto;mix-blend-mode:normal;color-interpolation:sRGB;color-interpolation-filters:linearRGB;solid-color:#000000;solid-opacity:1;vector-effect:none;fill:#d55500;fill-opacity:1;fill-rule:nonzero;stroke:none;stroke-width:0.320503;stroke-linecap:butt;stroke-linejoin:miter;stroke-miterlimit:4;stroke-dasharray:none;stroke-dashoffset:0;stroke-opacity:1;color-rendering:auto;image-rendering:auto;shape-rendering:auto;text-rendering:auto;enable-background:accumulate;stop-color:#000000;stop-opacity:1"
       id="path3819" />
    <use
       height="100%"
       width="100%"
       transform="matrix(1,0,0,-1,3.0555554e-8,66.939584)"
       id="use3946"
       xlink:href="#path3819"
       y="0"
       x="0" />
  </g>
</svg>
